<?xml version="1.0" encoding="UTF-8"?>
<svg width="313px" height="151px" viewBox="0 0 313 151" version="1.1" xmlns="http://www.w3.org/2000/svg" xmlns:xlink="http://www.w3.org/1999/xlink">
    <!-- Generator: Sketch 64 (93537) - https://sketch.com -->
    <title>CoffeeFull</title>
    <desc>Created with Sketch.</desc>
    <defs>
        <path d="M208.258639,0 C208.258639,54.8630423 187.836481,102.846613 157.358172,129 L51.1591067,129 C21.14101,103.24152 0.877667,56.307135 0.272572462,2.48048066 L0.258639433,0 L208.258639,0 Z" id="path-1"></path>
    </defs>
    <g id="CoffeeFull" stroke="none" stroke-width="1" fill="none" fill-rule="evenodd">
        <path d="M312.657304,140 C315.688071,143.34305 298.403843,146.390736 269.226402,148.56603 L268.338605,148.63168 C254.848293,149.621142 238.898142,150.426363 221.246126,151.001112 L91.8176773,151.000487 L88.3899052,150.885201 C73.0643458,150.353328 59.0936102,149.645521 46.992684,148.793229 L44.0195889,148.578111 C17.7634204,146.626335 1.09602471,143.969748 0.128216374,141.026321 L0.103296567,140.935196 L0,140 L312.657304,140 Z" id="Dish" fill="#FFFFFF"></path>
        <path d="M270.376174,1.01579235 C293.619847,4.28247755 309.160142,30.4286293 305.086393,59.4148568 C304.011256,67.0648511 301.677396,74.1481208 298.396817,80.3709096 L298.170861,80.7895066 L297.907163,81.2584598 C295.43081,85.5837673 289.096872,94.6538915 281.956283,100.384674 C262.995799,115.601684 244.911387,116.569875 231.764988,116.631477 C224.280711,126.171895 215.811743,134.37655 206.584541,141.001391 L92.4149029,141.001391 C83.0643381,134.28754 74.4923887,125.951473 66.9334464,116.247658 C46.6812683,90.2488627 33.7687026,54.4032959 33.0332064,14.5987571 L33.0146509,13.3913532 L32.9377355,1 L260.86186,0.99904786 C263.982657,0.573459579 267.168958,0.565047525 270.376174,1.01579235 Z M254,1 L46,1 L46.013933,3.48052427 C46.6190276,57.308125 66.8823706,104.243335 96.9004673,130.002268 L96.9004673,130.002268 L203.099533,130.002268 C233.577841,103.848421 254,55.8640069 254,1 L254,1 Z M265.83538,18.9559574 L265.812452,19.5355803 C264.71365,44.4747263 258.832803,67.736529 249.39028,87.8330906 C252.054338,89.7266107 255.053412,90.9787897 258.305104,91.4357851 C265.55166,92.4542223 272.680764,89.3306013 278.348917,83.4570943 C284.01707,77.5835874 288.224272,68.9601944 289.627026,58.9790878 C291.029779,48.9979812 289.362486,39.5489818 285.532865,32.3406499 C281.703245,25.1323179 275.711297,20.1646533 268.46474,19.1462161 C267.585759,19.0226835 266.708507,18.9600921 265.83538,18.9559574 Z" id="Mug" fill="#FFFFFF"></path>
        <g id="Content" transform="translate(45.741361, 1.000000)">
            <mask id="mask-2" fill="white">
                <use xlink:href="#path-1"></use>
            </mask>
            <g id="Mask"></g>
            <g mask="url(#mask-2)">
                <g transform="translate(-158.000000, -1.000000)">
                    <path d="M463.056633,0 C469.000274,0 474.130378,1.35864147 476.517046,3.32315028 C478.284748,2.75647894 480.500679,2.41949965 482.905933,2.41949965 C487.148538,2.41949965 490.8021,3.46794705 492.449209,4.97559573 C494.537564,3.99310788 497.396456,3.38729952 500.549754,3.38729952 C502.736249,3.38729952 504.781193,3.67857387 506.525763,4.18479131 C508.407643,3.39143305 510.965252,2.90339958 513.78262,2.90339958 C518.204918,2.90339958 521.987218,4.10582569 523.524277,5.80627068 L524.258639,5.80679917 L524.110353,6.7253296 C524.207861,6.97731372 524.258639,7.23627915 524.258639,7.50044893 C524.258639,7.99125146 524.083361,8.46408957 523.758775,8.90756728 L521.596152,22.2922531 L520.892162,22.1137776 C513.676487,20.3601677 511.854366,22.3605077 500.549754,24.5105266 C488.886266,26.7288001 484.855169,18.5930541 475.588893,20.2890176 L474.691929,20.4482551 C466.104387,21.9248583 462.652656,21.1220086 444.474519,24.9510066 C429.4686,28.1118164 409.895709,22.3199598 399.108737,23.425293 C388.517917,24.5105266 380.095316,29.3816816 377.299655,30.0419922 C367.787948,32.2885742 356.84946,24.5105266 349.586257,27.082564 L348.627395,27.4171457 C337.049743,31.3961773 322.932877,34.0147408 309.289401,28.1118164 C308.40152,27.7276697 307.538135,27.3433704 306.699703,26.9604778 C305.666014,27.1885726 304.536067,27.4235342 303.291115,27.6603111 C291.627626,29.8785846 287.59653,21.7428385 278.330254,23.4388021 C269.265419,25.0978969 258.954138,23.7272953 247.950477,27.8197726 L247.21588,28.1007911 C236.576087,32.2851705 223.459446,30.0029116 213.131722,28.5453908 L212.212996,28.7540638 C211.110323,29.0000297 209.897421,29.2542145 208.549754,29.5105266 C203.438805,30.4825757 199.793427,29.4664471 196.5309,28.1606338 L195.431151,28.3001594 C189.183209,29.1192789 182.724696,30.3858531 179.215544,30.2323484 C170.656169,29.8579265 161.091649,27.2978044 152.327618,30.2323484 C151.731619,30.4319125 151.070653,30.5824185 150.347531,30.693374 C140.958476,33.5824022 130.000338,32.0624531 120.799849,30.740269 L120.172791,30.7879592 L119.541341,30.8401804 C107.501749,31.8755696 99.7059186,33.2534008 96.9405049,30.6806928 L92.4448323,31.3535113 C89.2440302,31.8196899 86.4102311,32.1672546 84.474183,32.082564 C76.1050168,31.7164625 66.7748818,29.2607238 58.1716921,31.8949837 L57.5862573,32.082564 C51.9346475,33.9749463 40.44126,31.4560689 25.5027383,32.6325127 L23.4018501,32.8136478 C9.15819055,34.0982412 1.24424564,35.6403782 1.07747583,29.7046066 L1.07478512,29.5105266 C1.07478512,25.2257861 -1.17002149,19.0240328 1.78621987,10.8067992 L2.07742319,10.8063414 C3.5865978,8.32888603 10.7816702,6.45169979 19.4300415,6.45169979 C25.7221369,6.45169979 31.2449658,7.44534037 34.3685188,8.94087008 C36.9962455,7.99431826 40.4537423,7.41949965 44.2416656,7.41949965 C49.1288607,7.41949965 53.466019,8.37635841 56.1802492,9.85414793 C57.3762078,7.89442102 61.452377,6.45169979 66.2964426,6.45169979 C70.4951499,6.45169979 74.1169395,7.53561071 75.7879475,9.10055849 C77.6476712,8.35680999 80.1219332,7.90339958 82.8375253,7.90339958 C86.1364684,7.90339958 89.079262,8.57253193 90.999527,9.61837853 C92.3540915,8.67853857 95.0062864,7.90070619 98.3964784,7.42881468 L98.6428549,7.39509766 C101.626346,5.73147895 107.461459,4.60148426 114.171402,4.60148426 C120.463497,4.60148426 125.986326,5.59512484 129.109879,7.09065455 C131.737606,6.14410273 135.195103,5.56928413 138.983026,5.56928413 C142.236561,5.56928413 145.246325,5.99335606 147.695766,6.71288176 C149.147495,6.54321619 150.698893,6.45169979 152.310073,6.45169979 L152.633504,6.45419509 C154.542329,5.32971292 157.596264,4.60148426 161.037803,4.60148426 C163.041931,4.60148426 164.914616,4.84843654 166.506452,5.27677856 C167.940114,5.09689494 169.469364,5 171.056633,5 C174.440607,5 177.560872,5.44040656 180.061256,6.18229223 C182.334372,6.42528485 184.318247,6.99334063 185.740888,7.76816301 C187.998495,6.20176307 193.860632,5.08538419 200.736402,5.08538419 C207.150444,5.08538419 212.682419,6.05686132 215.229983,7.45901465 C217.83613,6.59235463 221.495725,6.05318406 225.548026,6.05318406 C228.935497,6.05318406 232.04855,6.42995218 234.501896,7.05993709 C237.145354,5.58179294 241.778214,4.60148426 247.051433,4.60148426 C249.679411,4.60148426 252.148346,4.84495938 254.291419,5.2722633 C257.020784,3.97639909 261.161906,3.14978447 265.797994,3.14978447 C271.741635,3.14978447 276.871739,4.50842594 279.258407,6.47293475 C281.026109,5.90626341 283.242039,5.56928413 285.647293,5.56928413 C288.164275,5.56928413 290.473935,5.93829685 292.280313,6.55328443 C292.742362,6.30147173 293.243872,6.05172159 293.78622,5.80679917 L294.077423,5.80634138 C295.586598,3.32888603 302.78167,1.45169979 311.430041,1.45169979 C317.722137,1.45169979 323.244966,2.44534037 326.368519,3.94087008 C328.996245,2.99431826 332.453742,2.41949965 336.241666,2.41949965 C341.128861,2.41949965 345.466019,3.37635841 348.180249,4.85414793 C349.376208,2.89442102 353.452377,1.45169979 358.296443,1.45169979 C362.49515,1.45169979 366.11694,2.53561071 367.787948,4.10055849 C369.647671,3.35680999 372.121933,2.90339958 374.837525,2.90339958 C378.136468,2.90339958 381.079262,3.57253193 382.999527,4.61837853 C385.257134,3.05197859 391.119271,1.93559972 397.995041,1.93559972 C404.409084,1.93559972 409.941058,2.90707685 412.488622,4.30923018 C415.094769,3.44257016 418.754365,2.90339958 422.806665,2.90339958 C426.194137,2.90339958 429.307189,3.28016771 431.760535,3.91015262 C434.403994,2.43200847 439.036853,1.45169979 444.310073,1.45169979 C446.938051,1.45169979 449.406985,1.69517491 451.550059,2.12247883 C454.279423,0.826614617 458.420545,0 463.056633,0 Z" id="Foam" fill="#F2DED5"></path>
                    <path d="M187.125505,2.78116104 L187.945418,2.9200182 C193.688037,3.92876615 202.274347,6.12103547 212.234552,6.77615808 C213.518715,6.44253925 214.801273,6.03876423 216.079241,5.5568218 C224.076865,2.54078788 234.916054,1.18252746 248.596806,1.48204055 C254.666878,0.399678978 261.541592,0.0293321074 268.793493,1.93369818 C269.267228,2.05810209 269.758358,2.19316954 270.265973,2.33693583 C276.377594,1.42357766 283.20588,1.52739553 290.750548,2.64741796 L291.624265,2.78116104 C299.780206,4.06703779 308.377963,2.77026777 320.722892,3.46707967 C328.410179,1.76189409 337.943722,1.13329004 349.322598,1.58125588 C349.998178,1.60785227 351.085218,2.31753667 352.436768,2.89512772 L353.452101,2.63790417 C359.417341,1.15608252 366.120532,0.0503875757 373.292253,1.93369818 L374.307861,2.20869848 C384.364512,5.00440177 401.269051,11.5972632 417.519163,5.76295504 L418.079241,5.5568218 C426.695279,2.3075739 438.609318,0.982385261 453.821358,1.58125588 C455.356104,1.64167607 459.014321,5.22739259 463.073155,2.78116104 C465.779044,1.15034001 468.007125,1.15034001 469.757399,2.78116104 C469.757399,56.8866846 449.33524,104.207725 418.856932,130 L110.657867,130 C80.63977,104.597179 60.3764269,58.3108381 59.7713324,5.22739259 L59.7573994,2.78116104 C56.88898,-0.852889386 66.392991,-0.925570395 88.2694323,2.56311802 L89.6242654,2.78116104 C98.8284503,4.27563478 116.312309,9.50820852 135.041361,5.45768709 C140.468933,4.28386911 148.337206,1.28313395 157.489005,0.690294296 C160.138841,-0.693586123 170.017806,0.00340203186 187.125505,2.78116104 Z" id="Water" fill="#A6D7E4"></path>
                    <path d="M184.863716,10.6978561 C195.883872,12.8971143 213.195729,18.8176378 230.321965,13.395078 L230.926333,13.198959 C234.755274,11.9261004 242.182661,8.63810007 249.676296,11.1695302 L250.939934,10.9437092 C259.455342,9.45187121 269.784159,8.26848867 281.347657,9.53864102 C286.042532,9.34734474 290.238919,9.91069512 293.937647,11.2286213 L294.438934,11.4130156 C296.557113,12.216879 298.948377,12.9381718 301.601704,13.5509525 C304.263278,14.1051369 307.065322,14.6172991 309.967593,14.9933284 C312.03244,15.2434598 314.205558,15.4355203 316.483832,15.5627982 C322.459047,15.8132574 328.709948,15.2654776 334.926333,13.198959 L335.358517,13.0523546 C339.225089,11.7189307 346.198591,8.83646468 353.286289,11.0429708 L353.6953,11.1759624 C354.669137,11.5062093 355.655614,11.7603268 356.654733,11.9383149 L358.280059,11.620314 C369.114768,9.53019431 383.460805,7.42437816 399.863716,10.6978561 C410.883872,12.8971143 428.195729,18.8176378 445.321965,13.395078 L445.926333,13.198959 C449.688835,11.9481869 456.925987,8.75159906 464.286289,11.0429708 L464.6953,11.1759624 C468.67226,12.5246268 472.860039,12.6036446 477.258639,11.4130156 C477.258639,61.8474555 456.836481,105.957742 426.358172,130 L105.159107,130 C75.14101,106.320772 54.877667,63.1749795 54.2725725,13.6932693 L54.2586394,11.4130156 C64.1132437,8.92066961 72.3599407,8.86648817 78.9987303,11.2504713 L79.4389342,11.4130156 C90.3118224,15.5393519 108.380256,17.4900339 132.153408,13.7563986 L132.885225,13.6373454 C143.910462,11.7858108 162.470288,6.22886929 184.863716,10.6978561 Z" id="Milk" fill="#DDCBB4"></path>
                    <path d="M240.125505,11.5886191 L240.945418,11.7178631 C246.688037,12.6567746 257.212253,16.3984375 269.079241,14.1721188 C280.946229,11.9458 287.916054,10.1006602 301.596806,10.3794377 C307.666878,9.37200889 314.541592,9.02730142 321.793493,10.7998268 C322.267228,10.9156181 322.758358,11.0413347 323.265973,11.175148 C329.377594,10.3250223 336.20588,10.4216528 343.750548,11.4641352 L344.624265,11.5886191 C352.780206,12.7854736 361.377963,11.57848 373.722892,12.2270511 C381.410179,10.6399168 390.943722,10.0548315 402.322598,10.4717843 C402.998178,10.4965394 404.085218,11.1570918 405.436768,11.6946958 L406.452101,11.45528 C412.417341,10.076046 419.120532,9.04689921 426.292253,10.7998268 L427.307861,11.0557886 C437.364512,13.6579432 454.269051,19.7943758 470.519163,14.3639812 L471.079241,14.1721188 C479.695279,11.1478188 491.609318,9.91437397 506.821358,10.4717843 C508.356104,10.5280216 512.014321,13.8654962 516.073155,11.5886191 C518.779044,10.0707011 521.007125,10.0707011 522.757399,11.5886191 C522.757399,61.9483757 502.33524,105.993344 471.856932,130 L163.657867,130 C133.63977,106.355836 113.376427,63.2739339 112.771332,13.8654962 L112.757399,11.5886191 C109.88898,8.2061568 119.392991,8.13850756 141.269432,11.3856714 L142.624265,11.5886191 C151.82845,12.9796293 169.312309,17.8499479 188.041361,14.0798472 C193.468933,12.9872936 201.337206,10.1943016 210.489005,9.64250469 C213.138841,8.35443138 223.017806,9.00316651 240.125505,11.5886191 Z" id="Cocoa" fill="#402C28"></path>
                    <path d="M240.125505,11.5886191 C248.504301,14.4523579 255.063978,15.7180656 259.804538,15.3857422 C266.915378,14.8872571 273.513034,12.2270511 281.594997,11.5886191 C289.948489,10.9287378 291.770358,11.0557886 301.596806,10.3794377 C307.666878,9.37200889 314.541592,9.02730142 321.793493,10.7998268 C322.267228,10.9156181 322.758358,11.0413347 323.265973,11.175148 C329.377594,10.3250223 336.20588,10.4216528 343.750548,11.4641352 L344.624265,11.5886191 C352.780206,12.7854736 361.377963,11.57848 373.722892,12.2270511 C381.410179,10.6399168 390.943722,10.0548315 402.322598,10.4717843 C402.998178,10.4965394 404.085218,11.1570918 405.436768,11.6946958 L406.452101,11.45528 C412.417341,10.076046 419.120532,9.04689921 426.292253,10.7998268 L427.307861,11.0557886 C437.364512,13.6579432 454.269051,19.7943758 470.519163,14.3639812 L471.079241,14.1721188 C479.695279,11.1478188 491.609318,9.91437397 506.821358,10.4717843 C508.356104,10.5280216 512.014321,13.8654962 516.073155,11.5886191 C518.779044,10.0707011 521.007125,10.0707011 522.757399,11.5886191 C522.757399,61.9483757 502.33524,105.993344 471.856932,130 L163.657867,130 C133.63977,106.355836 113.376427,63.2739339 112.771332,13.8654962 L112.757399,11.5886191 C109.88898,8.2061568 119.392991,8.13850756 141.269432,11.3856714 L142.624265,11.5886191 C151.82845,12.9796293 169.312309,17.8499479 188.041361,14.0798472 C193.468933,12.9872936 201.337206,10.1943016 210.489005,9.64250469 C213.138841,8.35443138 223.017806,9.00316651 240.125505,11.5886191 Z" id="Coffee" fill="#644842"></path>
                    <g id="Ice" opacity="0.800409226" stroke-width="1" fill="none" transform="translate(192.920749, 53.529297)">
                        <rect id="Ice_block_2" stroke="#7BCCE5" stroke-width="2" fill="#A6D7E4" transform="translate(39.000000, 39.000000) rotate(-26.000000) translate(-39.000000, -39.000000) " x="10" y="10" width="58" height="58" rx="4"></rect>
                        <rect id="Ice_block_1" stroke="#7BCCE5" stroke-width="2" fill="#A6D7E4" transform="translate(95.337891, 41.470703) rotate(-11.000000) translate(-95.337891, -41.470703) " x="65.3378906" y="11.4707031" width="60" height="60" rx="4"></rect>
                    </g>
                </g>
            </g>
        </g>
    </g>
</svg>